C:\Users\vnasca\Desktop\facultate\DS\tema3_1 backup\ds.handson.assignment3\tema4_user\src\main\java\io\spring\guides\gs_producing_web_service\TrackPojo.java
C:\Users\vnasca\Desktop\facultate\DS\tema3_1 backup\ds.handson.assignment3\tema4_user\src\main\java\ds\tema4\model\Customer.java
C:\Users\vnasca\Desktop\facultate\DS\tema3_1 backup\ds.handson.assignment3\tema4_user\src\main\java\io\spring\guides\gs_producing_web_service\GetPackageByIdRequest.java
C:\Users\vnasca\Desktop\facultate\DS\tema3_1 backup\ds.handson.assignment3\tema4_user\src\main\java\ds\tema4\Repo\Impl\RouteRepositoryImpl.java
C:\Users\vnasca\Desktop\facultate\DS\tema3_1 backup\ds.handson.assignment3\tema4_user\src\main\java\io\spring\guides\gs_producing_web_service\StatusResponse.java
C:\Users\vnasca\Desktop\facultate\DS\tema3_1 backup\ds.handson.assignment3\tema4_user\src\main\java\ds\tema4\utils\Converter.java
C:\Users\vnasca\Desktop\facultate\DS\tema3_1 backup\ds.handson.assignment3\tema4_user\src\main\java\ds\tema4\Application.java
C:\Users\vnasca\Desktop\facultate\DS\tema3_1 backup\ds.handson.assignment3\tema4_user\src\main\java\io\spring\guides\gs_producing_web_service\DeletePackageRequest.java
C:\Users\vnasca\Desktop\facultate\DS\tema3_1 backup\ds.handson.assignment3\tema4_user\src\main\java\io\spring\guides\gs_producing_web_service\GetPackageStatus.java
C:\Users\vnasca\Desktop\facultate\DS\tema3_1 backup\ds.handson.assignment3\tema4_user\src\main\java\io\spring\guides\gs_producing_web_service\ObjectFactory.java
C:\Users\vnasca\Desktop\facultate\DS\tema3_1 backup\ds.handson.assignment3\tema4_user\target\generated-sources\java\ds\tema4\model\QRoute.java
C:\Users\vnasca\Desktop\facultate\DS\tema3_1 backup\ds.handson.assignment3\tema4_user\src\main\java\ds\tema4\controller\DsEndpoint.java
C:\Users\vnasca\Desktop\facultate\DS\tema3_1 backup\ds.handson.assignment3\tema4_user\src\main\java\io\spring\guides\gs_producing_web_service\PackagePojo.java
C:\Users\vnasca\Desktop\facultate\DS\tema3_1 backup\ds.handson.assignment3\tema4_user\target\generated-sources\java\ds\tema4\model\QCustomer.java
C:\Users\vnasca\Desktop\facultate\DS\tema3_1 backup\ds.handson.assignment3\tema4_user\src\main\java\ds\tema4\Repo\PackageRepository.java
C:\Users\vnasca\Desktop\facultate\DS\tema3_1 backup\ds.handson.assignment3\tema4_user\src\main\java\ds\tema4\config\SwaggerConfig.java
C:\Users\vnasca\Desktop\facultate\DS\tema3_1 backup\ds.handson.assignment3\tema4_user\src\main\java\io\spring\guides\gs_producing_web_service\Country.java
C:\Users\vnasca\Desktop\facultate\DS\tema3_1 backup\ds.handson.assignment3\tema4_user\src\main\java\ds\tema4\config\WebServiceConfig.java
C:\Users\vnasca\Desktop\facultate\DS\tema3_1 backup\ds.handson.assignment3\tema4_user\src\main\java\ds\tema4\model\Package.java
C:\Users\vnasca\Desktop\facultate\DS\tema3_1 backup\ds.handson.assignment3\tema4_user\src\main\java\io\spring\guides\gs_producing_web_service\RouteList.java
C:\Users\vnasca\Desktop\facultate\DS\tema3_1 backup\ds.handson.assignment3\tema4_user\src\main\java\ds\tema4\Repo\RouteRepository.java
C:\Users\vnasca\Desktop\facultate\DS\tema3_1 backup\ds.handson.assignment3\tema4_user\src\main\java\io\spring\guides\gs_producing_web_service\Currency.java
C:\Users\vnasca\Desktop\facultate\DS\tema3_1 backup\ds.handson.assignment3\tema4_user\src\main\java\ds\tema4\config\JpaConfig.java
C:\Users\vnasca\Desktop\facultate\DS\tema3_1 backup\ds.handson.assignment3\tema4_user\src\main\java\io\spring\guides\gs_producing_web_service\GetCountryRequest.java
C:\Users\vnasca\Desktop\facultate\DS\tema3_1 backup\ds.handson.assignment3\tema4_user\src\main\java\io\spring\guides\gs_producing_web_service\package-info.java
C:\Users\vnasca\Desktop\facultate\DS\tema3_1 backup\ds.handson.assignment3\tema4_user\src\main\java\ds\tema4\model\Route.java
C:\Users\vnasca\Desktop\facultate\DS\tema3_1 backup\ds.handson.assignment3\tema4_user\src\main\java\ds\tema4\service\TrackingService.java
C:\Users\vnasca\Desktop\facultate\DS\tema3_1 backup\ds.handson.assignment3\tema4_user\src\main\java\io\spring\guides\gs_producing_web_service\GetPackageByTracking.java
C:\Users\vnasca\Desktop\facultate\DS\tema3_1 backup\ds.handson.assignment3\tema4_user\src\main\java\io\spring\guides\gs_producing_web_service\CreatePackageRequest.java
C:\Users\vnasca\Desktop\facultate\DS\tema3_1 backup\ds.handson.assignment3\tema4_user\src\main\java\io\spring\guides\gs_producing_web_service\PackageResponse.java
C:\Users\vnasca\Desktop\facultate\DS\tema3_1 backup\ds.handson.assignment3\tema4_user\target\generated-sources\java\ds\tema4\model\QPackage.java
C:\Users\vnasca\Desktop\facultate\DS\tema3_1 backup\ds.handson.assignment3\tema4_user\src\main\java\io\spring\guides\gs_producing_web_service\GetPackageByStatus.java
C:\Users\vnasca\Desktop\facultate\DS\tema3_1 backup\ds.handson.assignment3\tema4_user\src\main\java\io\spring\guides\gs_producing_web_service\RouteResponse.java
C:\Users\vnasca\Desktop\facultate\DS\tema3_1 backup\ds.handson.assignment3\tema4_user\src\main\java\io\spring\guides\gs_producing_web_service\PackageList.java
C:\Users\vnasca\Desktop\facultate\DS\tema3_1 backup\ds.handson.assignment3\tema4_user\src\main\java\io\spring\guides\gs_producing_web_service\RoutePojo.java
C:\Users\vnasca\Desktop\facultate\DS\tema3_1 backup\ds.handson.assignment3\tema4_user\src\main\java\ds\tema4\Repo\Impl\PackageRepositoryImpl.java
C:\Users\vnasca\Desktop\facultate\DS\tema3_1 backup\ds.handson.assignment3\tema4_user\src\main\java\io\spring\guides\gs_producing_web_service\GetAllPackages.java
C:\Users\vnasca\Desktop\facultate\DS\tema3_1 backup\ds.handson.assignment3\tema4_user\src\main\java\io\spring\guides\gs_producing_web_service\GetCountryResponse.java
C:\Users\vnasca\Desktop\facultate\DS\tema3_1 backup\ds.handson.assignment3\tema4_user\src\main\java\io\spring\guides\gs_producing_web_service\CustomerPojo.java
C:\Users\vnasca\Desktop\facultate\DS\tema3_1 backup\ds.handson.assignment3\tema4_user\src\main\java\io\spring\guides\gs_producing_web_service\SetClientId.java
C:\Users\vnasca\Desktop\facultate\DS\tema3_1 backup\ds.handson.assignment3\tema4_user\src\main\java\io\spring\guides\gs_producing_web_service\CreateRouteRequest.java
C:\Users\vnasca\Desktop\facultate\DS\tema3_1 backup\ds.handson.assignment3\tema4_user\src\main\java\io\spring\guides\gs_producing_web_service\StatusPojo.java
C:\Users\vnasca\Desktop\facultate\DS\tema3_1 backup\ds.handson.assignment3\tema4_user\src\main\java\io\spring\guides\gs_producing_web_service\GetAllRoutes.java
C:\Users\vnasca\Desktop\facultate\DS\tema3_1 backup\ds.handson.assignment3\tema4_user\src\main\java\io\spring\guides\gs_producing_web_service\TrackRequest.java
C:\Users\vnasca\Desktop\facultate\DS\tema3_1 backup\ds.handson.assignment3\tema4_user\src\main\java\ds\tema4\Repo\Impl\CustomerRepositoryImpl.java
C:\Users\vnasca\Desktop\facultate\DS\tema3_1 backup\ds.handson.assignment3\tema4_user\src\main\java\ds\tema4\Repo\CustomerRepository.java
