C:\Users\vnasca\Desktop\facultate\DS\Tema2_2\Tema2_2\src\main\java\Server\Calculator.java
C:\Users\vnasca\Desktop\facultate\DS\Tema2_2\Tema2_2\src\main\java\Server\Car.java
C:\Users\vnasca\Desktop\facultate\DS\Tema2_2\Tema2_2\src\main\java\Client\Client.java
C:\Users\vnasca\Desktop\facultate\DS\Tema2_2\Tema2_2\src\main\java\Client\ClientController.java
C:\Users\vnasca\Desktop\facultate\DS\Tema2_2\Tema2_2\src\main\java\Server\UtilCalculator.java
C:\Users\vnasca\Desktop\facultate\DS\Tema2_2\Tema2_2\src\main\java\Server\Server.java
